{
  "data": {
    "href" : "https://api.spotify.com/v1/artists/0k17h0D3J5VfsdmQ1iZtE9/albums?offset=0&limit=5&album_type=single,album,compilation,appears_on,ep",
    "items" : [ {
      "album_type" : "album",
      "artists" : [ {
        "external_urls" : {
          "spotify" : "https://open.spotify.com/artist/0k17h0D3J5VfsdmQ1iZtE9"
        },
        "href" : "https://api.spotify.com/v1/artists/0k17h0D3J5VfsdmQ1iZtE9",
        "id" : "0k17h0D3J5VfsdmQ1iZtE9",
        "name" : "Pink Floyd",
        "type" : "artist",
        "uri" : "spotify:artist:0k17h0D3J5VfsdmQ1iZtE9"
      } ],
      "available_markets" : [ "AD", "AT", "BE", "BG", "CH", "CY", "CZ", "DE", "DK", "EE", "ES", "FI", "FR", "GB", "GR", "HU", "IE", "IS", "IT", "LI", "LT", "LU", "LV", "MC", "MT", "NL", "NO", "PL", "PT", "SE", "SK", "TR" ],
      "external_urls" : {
        "spotify" : "https://open.spotify.com/album/1YH0ovJ2varLRw2WJCM25N"
      },
      "href" : "https://api.spotify.com/v1/albums/1YH0ovJ2varLRw2WJCM25N",
      "id" : "1YH0ovJ2varLRw2WJCM25N",
      "images" : [ {
        "height" : 640,
        "url" : "https://i.scdn.co/image/12e78a8ad2d1a71bb3c0984aaa2be8d08abc0b8a",
        "width" : 640
      }, {
        "height" : 300,
        "url" : "https://i.scdn.co/image/b2dadcfca15b3cf7797a9d028c27f056e28551b4",
        "width" : 300
      }, {
        "height" : 64,
        "url" : "https://i.scdn.co/image/316149e4f61f4255c919e53361c5a6b1ff724386",
        "width" : 64
      } ],
      "name" : "The Early Years 1967-72 Cre/ation",
      "type" : "album",
      "uri" : "spotify:album:1YH0ovJ2varLRw2WJCM25N"
    }, {
      "album_type" : "album",
      "artists" : [ {
        "external_urls" : {
          "spotify" : "https://open.spotify.com/artist/0k17h0D3J5VfsdmQ1iZtE9"
        },
        "href" : "https://api.spotify.com/v1/artists/0k17h0D3J5VfsdmQ1iZtE9",
        "id" : "0k17h0D3J5VfsdmQ1iZtE9",
        "name" : "Pink Floyd",
        "type" : "artist",
        "uri" : "spotify:artist:0k17h0D3J5VfsdmQ1iZtE9"
      } ],
      "available_markets" : [ "AU", "BR", "HK", "ID", "JP", "MY", "NZ", "PH", "SG", "TW", "UY", "AR", "CL", "PY", "BO", "DO", "CA", "CO", "EC", "PA", "PE", "US", "CR", "GT", "HN", "MX", "NI", "SV" ],
      "external_urls" : {
        "spotify" : "https://open.spotify.com/album/7tH16DtKOmdIyN7TV9SvhG"
      },
      "href" : "https://api.spotify.com/v1/albums/7tH16DtKOmdIyN7TV9SvhG",
      "id" : "7tH16DtKOmdIyN7TV9SvhG",
      "images" : [ {
        "height" : 640,
        "url" : "https://i.scdn.co/image/b759d5689e4de676d04bcbb210c87c8f85a9eb0f",
        "width" : 640
      }, {
        "height" : 300,
        "url" : "https://i.scdn.co/image/8356635821bc9635a229d28f56c2f58fd0f689a5",
        "width" : 300
      }, {
        "height" : 64,
        "url" : "https://i.scdn.co/image/090f62672ed7cb470dc2922a2a0672552cc5d99d",
        "width" : 64
      } ],
      "name" : "The Early Years, 1967-1972, Cre/ation",
      "type" : "album",
      "uri" : "spotify:album:7tH16DtKOmdIyN7TV9SvhG"
    }, {
      "album_type" : "album",
      "artists" : [ {
        "external_urls" : {
          "spotify" : "https://open.spotify.com/artist/0k17h0D3J5VfsdmQ1iZtE9"
        },
        "href" : "https://api.spotify.com/v1/artists/0k17h0D3J5VfsdmQ1iZtE9",
        "id" : "0k17h0D3J5VfsdmQ1iZtE9",
        "name" : "Pink Floyd",
        "type" : "artist",
        "uri" : "spotify:artist:0k17h0D3J5VfsdmQ1iZtE9"
      } ],
      "available_markets" : [ "AD", "AT", "BE", "BG", "CH", "CY", "CZ", "DE", "DK", "EE", "ES", "FI", "FR", "GB", "GR", "HU", "IE", "IS", "IT", "LI", "LT", "LU", "LV", "MC", "MT", "NL", "NO", "PL", "PT", "SE", "SK", "TR" ],
      "external_urls" : {
        "spotify" : "https://open.spotify.com/album/7iLuEbxvxepyHp4yfVfiut"
      },
      "href" : "https://api.spotify.com/v1/albums/7iLuEbxvxepyHp4yfVfiut",
      "id" : "7iLuEbxvxepyHp4yfVfiut",
      "images" : [ {
        "height" : 640,
        "url" : "https://i.scdn.co/image/6ff1bb5e03a20aca96a75d778e285da50dff4213",
        "width" : 640
      }, {
        "height" : 300,
        "url" : "https://i.scdn.co/image/1dbf4344fa358c8b97482b0d9cd7aec194437465",
        "width" : 300
      }, {
        "height" : 64,
        "url" : "https://i.scdn.co/image/3702e90ed3633345143509e9bc5ff786206bbde5",
        "width" : 64
      } ],
      "name" : "Pulse",
      "type" : "album",
      "uri" : "spotify:album:7iLuEbxvxepyHp4yfVfiut"
    }, {
      "album_type" : "album",
      "artists" : [ {
        "external_urls" : {
          "spotify" : "https://open.spotify.com/artist/0k17h0D3J5VfsdmQ1iZtE9"
        },
        "href" : "https://api.spotify.com/v1/artists/0k17h0D3J5VfsdmQ1iZtE9",
        "id" : "0k17h0D3J5VfsdmQ1iZtE9",
        "name" : "Pink Floyd",
        "type" : "artist",
        "uri" : "spotify:artist:0k17h0D3J5VfsdmQ1iZtE9"
      } ],
      "available_markets" : [ "AR", "AU", "BO", "BR", "CA", "CL", "CO", "CR", "DO", "EC", "GT", "HK", "HN", "ID", "JP", "MX", "MY", "NI", "NZ", "PA", "PE", "PH", "PY", "SG", "SV", "TW", "US", "UY" ],
      "external_urls" : {
        "spotify" : "https://open.spotify.com/album/3FDsXI2HlnNtVifZFyoTcf"
      },
      "href" : "https://api.spotify.com/v1/albums/3FDsXI2HlnNtVifZFyoTcf",
      "id" : "3FDsXI2HlnNtVifZFyoTcf",
      "images" : [ {
        "height" : 640,
        "url" : "https://i.scdn.co/image/e5468f4f82e5bf5b96ec581f3d1d7cc6bd1f85c9",
        "width" : 640
      }, {
        "height" : 300,
        "url" : "https://i.scdn.co/image/ceb4fdacaeb0b47c1a513e9a22d1b5bb2ac7a750",
        "width" : 300
      }, {
        "height" : 64,
        "url" : "https://i.scdn.co/image/865708585286c4f0774b6e979cb328b446a47f1f",
        "width" : 64
      } ],
      "name" : "Pulse (Live)",
      "type" : "album",
      "uri" : "spotify:album:3FDsXI2HlnNtVifZFyoTcf"
    }, {
      "album_type" : "album",
      "artists" : [ {
        "external_urls" : {
          "spotify" : "https://open.spotify.com/artist/0k17h0D3J5VfsdmQ1iZtE9"
        },
        "href" : "https://api.spotify.com/v1/artists/0k17h0D3J5VfsdmQ1iZtE9",
        "id" : "0k17h0D3J5VfsdmQ1iZtE9",
        "name" : "Pink Floyd",
        "type" : "artist",
        "uri" : "spotify:artist:0k17h0D3J5VfsdmQ1iZtE9"
      } ],
      "available_markets" : [ "AD", "AT", "BE", "BG", "CH", "CY", "CZ", "DE", "DK", "EE", "ES", "FI", "FR", "GB", "GR", "HU", "IE", "IS", "IT", "LI", "LT", "LU", "LV", "MC", "MT", "NL", "NO", "PL", "PT", "SE", "SK", "TR" ],
      "external_urls" : {
        "spotify" : "https://open.spotify.com/album/7wzStEU2keGohEu8jpVMZW"
      },
      "href" : "https://api.spotify.com/v1/albums/7wzStEU2keGohEu8jpVMZW",
      "id" : "7wzStEU2keGohEu8jpVMZW",
      "images" : [ {
        "height" : 640,
        "url" : "https://i.scdn.co/image/5b1356127338a42ec3b3b4c013394a1fab51e2d1",
        "width" : 640
      }, {
        "height" : 300,
        "url" : "https://i.scdn.co/image/9dc92d2e7099215683ab15c2a0b679d50e5ae8ca",
        "width" : 300
      }, {
        "height" : 64,
        "url" : "https://i.scdn.co/image/3fcf4d873c2caacb70abdf2927ce2c0b127ae484",
        "width" : 64
      } ],
      "name" : "The Division Bell (2011 Remastered Version)",
      "type" : "album",
      "uri" : "spotify:album:7wzStEU2keGohEu8jpVMZW"
    } ],
    "limit" : 5,
    "next" : "https://api.spotify.com/v1/artists/0k17h0D3J5VfsdmQ1iZtE9/albums?offset=5&limit=5&album_type=single,album,compilation,appears_on,ep",
    "offset" : 0,
    "previous" : null,
    "total" : 62
  },
  "lifetime": 800
}