{
  "data": {
    "artists": {
      "href": "https://api.spotify.com/v1/search?query=pink+floyd&offset=0&limit=10&type=artist",
      "items": [
        {
          "external_urls": {
            "spotify": "https://open.spotify.com/artist/0k17h0D3J5VfsdmQ1iZtE9"
          },
          "followers": {
            "href": null,
            "total": 1953373
          },
          "genres": [
            "album rock",
            "art rock",
            "classic rock",
            "hard rock",
            "mellow gold",
            "progressive rock",
            "psychedelic rock",
            "rock",
            "space rock",
            "symphonic rock"
          ],
          "href": "https://api.spotify.com/v1/artists/0k17h0D3J5VfsdmQ1iZtE9",
          "id": "0k17h0D3J5VfsdmQ1iZtE9",
          "images": [
            {
              "height": 977,
              "url": "https://i.scdn.co/image/e69f71e2be4b67b82af90fb8e9d805715e0684fa",
              "width": 1000
            },
            {
              "height": 625,
              "url": "https://i.scdn.co/image/d011c95081cd9a329e506abd7ded47535d524a07",
              "width": 640
            },
            {
              "height": 195,
              "url": "https://i.scdn.co/image/f0a39a8a196a87a7236bdcf8a8708f6d5d3547cc",
              "width": 200
            },
            {
              "height": 63,
              "url": "https://i.scdn.co/image/ec1fb7127168dbaa962404031409c5a293b95ec6",
              "width": 64
            }
          ],
          "name": "Pink Floyd",
          "popularity": 80,
          "type": "artist",
          "uri": "spotify:artist:0k17h0D3J5VfsdmQ1iZtE9"
        },
        {
          "external_urls": {
            "spotify": "https://open.spotify.com/artist/0hioiM0MDloPdLjTE86zz8"
          },
          "followers": {
            "href": null,
            "total": 1153
          },
          "genres": [],
          "href": "https://api.spotify.com/v1/artists/0hioiM0MDloPdLjTE86zz8",
          "id": "0hioiM0MDloPdLjTE86zz8",
          "images": [
            {
              "height": 640,
              "url": "https://i.scdn.co/image/92911e90e7cfa8c64c2c790b22b75bce1e31508e",
              "width": 640
            },
            {
              "height": 300,
              "url": "https://i.scdn.co/image/e732ffc4993f97d3a8a185f5528dd2790e7feec5",
              "width": 300
            },
            {
              "height": 64,
              "url": "https://i.scdn.co/image/f26ed264300acf85b480a2ff97d4d5786c32d79c",
              "width": 64
            }
          ],
          "name": "Pink Floyd Redux",
          "popularity": 29,
          "type": "artist",
          "uri": "spotify:artist:0hioiM0MDloPdLjTE86zz8"
        },
        {
          "external_urls": {
            "spotify": "https://open.spotify.com/artist/2tDvdcTW7H4vYW7S18MA2e"
          },
          "followers": {
            "href": null,
            "total": 938
          },
          "genres": [],
          "href": "https://api.spotify.com/v1/artists/2tDvdcTW7H4vYW7S18MA2e",
          "id": "2tDvdcTW7H4vYW7S18MA2e",
          "images": [
            {
              "height": 640,
              "url": "https://i.scdn.co/image/2480d7c24b9ad93408a8455b1dc281d3f7239268",
              "width": 640
            },
            {
              "height": 300,
              "url": "https://i.scdn.co/image/20e2a3ff56e6f48da768cdc0076c9b44791dfcc5",
              "width": 300
            },
            {
              "height": 64,
              "url": "https://i.scdn.co/image/6bba35066a43b9d2e0f2df791bb448f9e4cecbd6",
              "width": 64
            }
          ],
          "name": "The Pink Floyd Story",
          "popularity": 25,
          "type": "artist",
          "uri": "spotify:artist:2tDvdcTW7H4vYW7S18MA2e"
        },
        {
          "external_urls": {
            "spotify": "https://open.spotify.com/artist/0WhGOF7Zp2jKNwLkhnLQ2f"
          },
          "followers": {
            "href": null,
            "total": 407
          },
          "genres": [],
          "href": "https://api.spotify.com/v1/artists/0WhGOF7Zp2jKNwLkhnLQ2f",
          "id": "0WhGOF7Zp2jKNwLkhnLQ2f",
          "images": [
            {
              "height": 600,
              "url": "https://i.scdn.co/image/0efe4c3f559ec2ad86ecd141f5af7c754fa006d5",
              "width": 600
            },
            {
              "height": 300,
              "url": "https://i.scdn.co/image/bc4f35da342f6d833dab11b3e626b77d1c227aca",
              "width": 300
            },
            {
              "height": 64,
              "url": "https://i.scdn.co/image/2ecdbcb7e872d987189419536adc312c8c207436",
              "width": 64
            }
          ],
          "name": "Think Pink Floyd",
          "popularity": 5,
          "type": "artist",
          "uri": "spotify:artist:0WhGOF7Zp2jKNwLkhnLQ2f"
        },
        {
          "external_urls": {
            "spotify": "https://open.spotify.com/artist/7lUQIyYdLQepZiPcLuLsNA"
          },
          "followers": {
            "href": null,
            "total": 14
          },
          "genres": [],
          "href": "https://api.spotify.com/v1/artists/7lUQIyYdLQepZiPcLuLsNA",
          "id": "7lUQIyYdLQepZiPcLuLsNA",
          "images": [
            {
              "height": 600,
              "url": "https://i.scdn.co/image/783012bcd40d22c6300be5ec3fd11a472740ac04",
              "width": 600
            },
            {
              "height": 300,
              "url": "https://i.scdn.co/image/054ffe0b3ef76f9abc995c66818bd8bd8d44906b",
              "width": 300
            },
            {
              "height": 64,
              "url": "https://i.scdn.co/image/d72cc013a0ff009d20f54a38963a383ed344f3e0",
              "width": 64
            }
          ],
          "name": "Billy Martin - Think Pink Floyd",
          "popularity": 0,
          "type": "artist",
          "uri": "spotify:artist:7lUQIyYdLQepZiPcLuLsNA"
        },
        {
          "external_urls": {
            "spotify": "https://open.spotify.com/artist/6QvBTZOpVhDqw3qFeBagCa"
          },
          "followers": {
            "href": null,
            "total": 3407
          },
          "genres": [],
          "href": "https://api.spotify.com/v1/artists/6QvBTZOpVhDqw3qFeBagCa",
          "id": "6QvBTZOpVhDqw3qFeBagCa",
          "images": [
            {
              "height": 640,
              "url": "https://i.scdn.co/image/4080bc55ea9ccc9f4fb101eae4c14351e832c382",
              "width": 640
            },
            {
              "height": 300,
              "url": "https://i.scdn.co/image/a47b7ea6600f4463c9a415170b94480a6be6f9f2",
              "width": 300
            },
            {
              "height": 64,
              "url": "https://i.scdn.co/image/94f79e9f570b89df31c2b4251176c0f5bb5d048e",
              "width": 64
            }
          ],
          "name": "The Australian Pink Floyd Show",
          "popularity": 22,
          "type": "artist",
          "uri": "spotify:artist:6QvBTZOpVhDqw3qFeBagCa"
        },
        {
          "external_urls": {
            "spotify": "https://open.spotify.com/artist/6ZrAKNMggJBcFcncgOG7ig"
          },
          "followers": {
            "href": null,
            "total": 172
          },
          "genres": [],
          "href": "https://api.spotify.com/v1/artists/6ZrAKNMggJBcFcncgOG7ig",
          "id": "6ZrAKNMggJBcFcncgOG7ig",
          "images": [
            {
              "height": 640,
              "url": "https://i.scdn.co/image/e3c8558685c021878600cc8e00ff42960ef9e423",
              "width": 640
            },
            {
              "height": 300,
              "url": "https://i.scdn.co/image/4440fd390622547c1c0a75816b43cf8be3bfa4a9",
              "width": 300
            },
            {
              "height": 64,
              "url": "https://i.scdn.co/image/28be31c9103a572167fd73edebf2946eb0356179",
              "width": 64
            }
          ],
          "name": "Floyd Pink",
          "popularity": 0,
          "type": "artist",
          "uri": "spotify:artist:6ZrAKNMggJBcFcncgOG7ig"
        },
        {
          "external_urls": {
            "spotify": "https://open.spotify.com/artist/2p8RD57F5dwDzIDZ95k3h0"
          },
          "followers": {
            "href": null,
            "total": 1674
          },
          "genres": [],
          "href": "https://api.spotify.com/v1/artists/2p8RD57F5dwDzIDZ95k3h0",
          "id": "2p8RD57F5dwDzIDZ95k3h0",
          "images": [
            {
              "height": 640,
              "url": "https://i.scdn.co/image/41c1dd9c5d40e9e3d2e2abe90d7c6d751075af3b",
              "width": 640
            },
            {
              "height": 300,
              "url": "https://i.scdn.co/image/f7c08eebc3a989d0e402ccb2c26c599470eb4a7d",
              "width": 300
            },
            {
              "height": 64,
              "url": "https://i.scdn.co/image/61c255f0dffd967ea22e413924930daa8e5c5133",
              "width": 64
            }
          ],
          "name": "Celtic Pink Floyd",
          "popularity": 16,
          "type": "artist",
          "uri": "spotify:artist:2p8RD57F5dwDzIDZ95k3h0"
        },
        {
          "external_urls": {
            "spotify": "https://open.spotify.com/artist/77hVxSyFhrS6zEzSuk7TQI"
          },
          "followers": {
            "href": null,
            "total": 119
          },
          "genres": [],
          "href": "https://api.spotify.com/v1/artists/77hVxSyFhrS6zEzSuk7TQI",
          "id": "77hVxSyFhrS6zEzSuk7TQI",
          "images": [],
          "name": "Pink Floyd Tribute Band",
          "popularity": 10,
          "type": "artist",
          "uri": "spotify:artist:77hVxSyFhrS6zEzSuk7TQI"
        },
        {
          "external_urls": {
            "spotify": "https://open.spotify.com/artist/0hdBO1QbB63ixZNRBFD0K9"
          },
          "followers": {
            "href": null,
            "total": 453
          },
          "genres": [],
          "href": "https://api.spotify.com/v1/artists/0hdBO1QbB63ixZNRBFD0K9",
          "id": "0hdBO1QbB63ixZNRBFD0K9",
          "images": [
            {
              "height": 640,
              "url": "https://i.scdn.co/image/ac80a02492a065f636b1b4ae2cc60002b72d6b14",
              "width": 640
            },
            {
              "height": 300,
              "url": "https://i.scdn.co/image/30b95dc69578314bf6c298a58754dba3b5bb9501",
              "width": 300
            },
            {
              "height": 64,
              "url": "https://i.scdn.co/image/1e187a911460a835eb168aedd8627fbd267fff89",
              "width": 64
            }
          ],
          "name": "Pink Floyd Project",
          "popularity": 6,
          "type": "artist",
          "uri": "spotify:artist:0hdBO1QbB63ixZNRBFD0K9"
        }
      ],
      "limit": 10,
      "next": "https://api.spotify.com/v1/search?query=pink+floyd&offset=10&limit=10&type=artist",
      "offset": 0,
      "previous": null,
      "total": 15
    }
  },
  "lifetime": 7200
}